{
  "classifierPath" : "meta::pure::metamodel::type::Enumeration",
  "content" : {
    "_type" : "Enumeration",
    "name" : "AncillaryRoleEnum",
    "package" : "cdm::model",
    "taggedValues" : [ {
      "tag" : {
        "profile" : "meta::pure::profiles::doc",
        "value" : "doc"
      },
      "value" : "Defines the enumerated values to specify the ancillary roles to the transaction. The product is agnostic to the actual parties involved in the transaction, with the party references abstracted away from the product definition and replaced by the AncillaryRoleEnum. The AncillaryRoleEnum can then be positioned in the product and the AncillaryParty type, which is positioned outside of the product definition, allows the AncillaryRoleEnum to be associated with an actual party reference."
    } ],
    "values" : [ {
      "taggedValues" : [ {
        "tag" : {
          "profile" : "meta::pure::profiles::doc",
          "value" : "doc"
        },
        "value" : "Specifies the party which determines additional disruption events."
      } ],
      "value" : "DisruptionEventsDeterminingParty"
    }, {
      "taggedValues" : [ {
        "tag" : {
          "profile" : "meta::pure::profiles::doc",
          "value" : "doc"
        },
        "value" : "Specifies the party which determines if dividends are extraordinary in relation to normal levels."
      } ],
      "value" : "ExtraordinaryDividendsParty"
    }, {
      "taggedValues" : [ {
        "tag" : {
          "profile" : "meta::pure::profiles::doc",
          "value" : "doc"
        },
        "value" : "Specifies the clearing organization (CCP, DCO) which the trade should be cleared."
      } ],
      "value" : "PredeterminedClearingOrganizationParty"
    }, {
      "taggedValues" : [ {
        "tag" : {
          "profile" : "meta::pure::profiles::doc",
          "value" : "doc"
        },
        "value" : "Specifies the party to which notice of a manual exercise should be given."
      } ],
      "value" : "ExerciseNoticeReceiverPartyManual"
    }, {
      "taggedValues" : [ {
        "tag" : {
          "profile" : "meta::pure::profiles::doc",
          "value" : "doc"
        },
        "value" : "Specifies the party to which notice of a optional early termination exercise should be given."
      } ],
      "value" : "ExerciseNoticeReceiverPartyOptionalEarlyTermination"
    }, {
      "taggedValues" : [ {
        "tag" : {
          "profile" : "meta::pure::profiles::doc",
          "value" : "doc"
        },
        "value" : "Specifies the party to which notice of a cancelable provision exercise should be given."
      } ],
      "value" : "ExerciseNoticeReceiverPartyCancelableProvision"
    }, {
      "taggedValues" : [ {
        "tag" : {
          "profile" : "meta::pure::profiles::doc",
          "value" : "doc"
        },
        "value" : "Specifies the party to which notice of a extendible provision exercise should be given."
      } ],
      "value" : "ExerciseNoticeReceiverPartyExtendibleProvision"
    }, {
      "taggedValues" : [ {
        "tag" : {
          "profile" : "meta::pure::profiles::doc",
          "value" : "doc"
        },
        "value" : "Specifies the party responsible for performing calculation agent duties as defined in the applicable product definition."
      } ],
      "value" : "CalculationAgentIndependent"
    }, {
      "taggedValues" : [ {
        "tag" : {
          "profile" : "meta::pure::profiles::doc",
          "value" : "doc"
        },
        "value" : "Specifies the party responsible for performing calculation agent duties associated with an optional early termination."
      } ],
      "value" : "CalculationAgentOptionalEarlyTermination"
    }, {
      "taggedValues" : [ {
        "tag" : {
          "profile" : "meta::pure::profiles::doc",
          "value" : "doc"
        },
        "value" : "Specifies the party responsible for performing calculation agent duties associated with an mandatory early termination."
      } ],
      "value" : "CalculationAgentMandatoryEarlyTermination"
    }, {
      "taggedValues" : [ {
        "tag" : {
          "profile" : "meta::pure::profiles::doc",
          "value" : "doc"
        },
        "value" : "Specifies the party responsible for deciding the fallback rate."
      } ],
      "value" : "CalculationAgentFallback"
    }, {
      "taggedValues" : [ {
        "tag" : {
          "profile" : "meta::pure::profiles::doc",
          "value" : "doc"
        },
        "value" : "Specifies the role of the party which either pays or receives a cashflow payment."
      } ],
      "value" : "ArrangingBroker"
    }, {
      "taggedValues" : [ {
        "tag" : {
          "profile" : "meta::pure::profiles::doc",
          "value" : "doc"
        },
        "value" : "Specifies the role of the party which either pays or receives a cashflow payment."
      } ],
      "value" : "Beneficiary"
    }, {
      "taggedValues" : [ {
        "tag" : {
          "profile" : "meta::pure::profiles::doc",
          "value" : "doc"
        },
        "value" : "Specifies the role of the party which either pays or receives a cashflow payment."
      } ],
      "value" : "ClearingFirm"
    }, {
      "taggedValues" : [ {
        "tag" : {
          "profile" : "meta::pure::profiles::doc",
          "value" : "doc"
        },
        "value" : "Specifies the role of the party which either pays or receives a cashflow payment."
      } ],
      "value" : "CounterpartyAfflilate"
    }, {
      "taggedValues" : [ {
        "tag" : {
          "profile" : "meta::pure::profiles::doc",
          "value" : "doc"
        },
        "value" : "Specifies the role of the party which either pays or receives a cashflow payment."
      } ],
      "value" : "Guarantor"
    }, {
      "taggedValues" : [ {
        "tag" : {
          "profile" : "meta::pure::profiles::doc",
          "value" : "doc"
        },
        "value" : "Specifies the role of the party which either pays or receives a cashflow payment."
      } ],
      "value" : "OtherParty"
    }, {
      "taggedValues" : [ {
        "tag" : {
          "profile" : "meta::pure::profiles::doc",
          "value" : "doc"
        },
        "value" : "Specifies the role of the party which either pays or receives a cashflow payment."
      } ],
      "value" : "PrimeBroker"
    }, {
      "taggedValues" : [ {
        "tag" : {
          "profile" : "meta::pure::profiles::doc",
          "value" : "doc"
        },
        "value" : "Specifies the role of the party which either pays or receives a cashflow payment."
      } ],
      "value" : "SettlementAgent"
    } ]
  }
}