{
  "classifierPath" : "meta::pure::metamodel::type::Class",
  "content" : {
    "_type" : "class",
    "name" : "ControlAgreementElections",
    "package" : "cdm::model",
    "properties" : [ {
      "multiplicity" : {
        "lowerBound" : 1,
        "upperBound" : 1
      },
      "name" : "party",
      "taggedValues" : [ {
        "tag" : {
          "profile" : "meta::pure::profiles::doc",
          "value" : "doc"
        },
        "value" : "The elective party."
      } ],
      "type" : "cdm::model::CounterpartyRoleEnum"
    }, {
      "multiplicity" : {
        "lowerBound" : 1,
        "upperBound" : 1
      },
      "name" : "controlAgreementAsCsd",
      "taggedValues" : [ {
        "tag" : {
          "profile" : "meta::pure::profiles::doc",
          "value" : "doc"
        },
        "value" : "The identification of whether the Control Agreement is a Credit Support Document with respect to each party"
      } ],
      "type" : "Boolean"
    }, {
      "multiplicity" : {
        "lowerBound" : 0,
        "upperBound" : 1
      },
      "name" : "consistencyWithControlAgreement",
      "taggedValues" : [ {
        "tag" : {
          "profile" : "meta::pure::profiles::doc",
          "value" : "doc"
        },
        "value" : "Unless specified as inapplicable in the event of any inconsistency between this Deed and the Control Agreement, this Deed will prevail over the Control Agreement"
      } ],
      "type" : "Boolean"
    }, {
      "multiplicity" : {
        "lowerBound" : 0,
        "upperBound" : 1
      },
      "name" : "relationshipWithControlAgreement",
      "taggedValues" : [ {
        "tag" : {
          "profile" : "meta::pure::profiles::doc",
          "value" : "doc"
        },
        "value" : "Unless specified as inapplicable the parties recognise that the Control Agreement is a means by which the parties can perform their obligations."
      } ],
      "type" : "Boolean"
    } ],
    "taggedValues" : [ {
      "tag" : {
        "profile" : "meta::pure::profiles::doc",
        "value" : "doc"
      },
      "value" : "A class to specify the Control Agreement election sby each party to the agreement."
    } ]
  }
}