{
  "classifierPath" : "meta::pure::metamodel::type::Class",
  "content" : {
    "_type" : "class",
    "name" : "CoveredTransactions",
    "package" : "cdm::model",
    "properties" : [ {
      "multiplicity" : {
        "lowerBound" : 1,
        "upperBound" : 1
      },
      "name" : "inclusionDate",
      "taggedValues" : [ {
        "tag" : {
          "profile" : "meta::pure::profiles::doc",
          "value" : "doc"
        },
        "value" : "Includes any Transaction specified below that is entered into on or after the specified date."
      } ],
      "type" : "Date"
    }, {
      "multiplicity" : {
        "lowerBound" : 1
      },
      "name" : "coveredTransactions",
      "taggedValues" : [ {
        "tag" : {
          "profile" : "meta::pure::profiles::doc",
          "value" : "doc"
        },
        "value" : "Covered Transactions when expressed using the ISDA taxonomy."
      } ],
      "type" : "cdm::model::ProductTaxonomy"
    }, {
      "multiplicity" : {
        "lowerBound" : 1
      },
      "name" : "bespokeCoveredTransactions",
      "taggedValues" : [ {
        "tag" : {
          "profile" : "meta::pure::profiles::doc",
          "value" : "doc"
        },
        "value" : "Covered Transactions when not expressed using the ISDA taxonomy."
      } ],
      "type" : "String"
    }, {
      "multiplicity" : {
        "lowerBound" : 0,
        "upperBound" : 2
      },
      "name" : "additionalObligations",
      "taggedValues" : [ {
        "tag" : {
          "profile" : "meta::pure::profiles::doc",
          "value" : "doc"
        },
        "value" : "The party specific additional obligations applicable to the document."
      } ],
      "type" : "cdm::model::AdditionalObligations"
    }, {
      "multiplicity" : {
        "lowerBound" : 0,
        "upperBound" : 1
      },
      "name" : "exposure",
      "taggedValues" : [ {
        "tag" : {
          "profile" : "meta::pure::profiles::doc",
          "value" : "doc"
        },
        "value" : "The bespoke definition of exposure for Covered Transactions as part of the agreement."
      } ],
      "type" : "String"
    } ],
    "taggedValues" : [ {
      "tag" : {
        "profile" : "meta::pure::profiles::doc",
        "value" : "doc"
      },
      "value" : "Specification of Transactions covered by the legal agreement."
    } ]
  }
}