{
  "classifierPath" : "meta::pure::metamodel::type::Enumeration",
  "content" : {
    "_type" : "Enumeration",
    "name" : "CreditRiskEnum",
    "package" : "cdm::model",
    "values" : [ {
      "taggedValues" : [ {
        "tag" : {
          "profile" : "meta::pure::profiles::doc",
          "value" : "doc"
        },
        "value" : "Tranched credit risk, including securitizations."
      } ],
      "value" : "TranchedCreditRisk"
    }, {
      "taggedValues" : [ {
        "tag" : {
          "profile" : "meta::pure::profiles::doc",
          "value" : "doc"
        },
        "value" : "Untranched credit risk, including repackagings."
      } ],
      "value" : "UntranchedCreditRisk"
    } ]
  }
}