{
  "classifierPath" : "meta::pure::metamodel::type::Class",
  "content" : {
    "_type" : "class",
    "name" : "CustodianEvent",
    "package" : "cdm::model",
    "properties" : [ {
      "multiplicity" : {
        "lowerBound" : 1,
        "upperBound" : 1
      },
      "name" : "isApplicable",
      "taggedValues" : [ {
        "tag" : {
          "profile" : "meta::pure::profiles::doc",
          "value" : "doc"
        },
        "value" : "The qualification as to whether the Custodian Event (English Law & New York Law ISDA CSA) or the Collateral Manager Event (Japanese Law ISDA CSA) is applicable."
      } ],
      "type" : "Boolean"
    }, {
      "multiplicity" : {
        "lowerBound" : 0,
        "upperBound" : 1
      },
      "name" : "endDate",
      "taggedValues" : [ {
        "tag" : {
          "profile" : "meta::pure::profiles::doc",
          "value" : "doc"
        },
        "value" : "The qualification of the Custodian Event (English Law & New York Law ISDA CSA) or Collateral Manager Event (Japanese Law ISDA CSA) End Date."
      } ],
      "type" : "cdm::model::CustodianEventEndDate"
    } ],
    "taggedValues" : [ {
      "tag" : {
        "profile" : "meta::pure::profiles::doc",
        "value" : "doc"
      },
      "value" : "A class to specify the Custodian Event (English Law & New York Law ISDA CSA) and the Collateral Manager Event (Japanese Law ISDA CSA) in terms of applicability and end-date. ISDA 2016 English Law Credit Support Deed for Initial Margin, paragraph 13, General Principles, (n)(iii): Custodian Event. | ISDA 2016 Japanese Law Credit Support Annex for Initial Margin, paragraph 13, General Principles, (m)(ii): Collateral Manager Event. | ISDA 2016 New York Law Credit Support Annex for Initial Margin, paragraph 13, General Principles, (n)(iii): Custodian Event."
    } ]
  }
}