{
  "classifierPath" : "meta::pure::metamodel::type::Enumeration",
  "content" : {
    "_type" : "Enumeration",
    "name" : "DeterminationMethodEnum",
    "package" : "cdm::model",
    "taggedValues" : [ {
      "tag" : {
        "profile" : "meta::pure::profiles::doc",
        "value" : "doc"
      },
      "value" : "The enumerated values to specify the method according to which an amount or a date is determined."
    } ],
    "values" : [ {
      "taggedValues" : [ {
        "tag" : {
          "profile" : "meta::pure::profiles::doc",
          "value" : "doc"
        },
        "value" : "Agreed separately between the parties."
      } ],
      "value" : "AgreedInitialPrice"
    }, {
      "taggedValues" : [ {
        "tag" : {
          "profile" : "meta::pure::profiles::doc",
          "value" : "doc"
        },
        "value" : "As specified in Master Confirmation."
      } ],
      "value" : "AsSpecifiedInMasterConfirmation"
    }, {
      "taggedValues" : [ {
        "tag" : {
          "profile" : "meta::pure::profiles::doc",
          "value" : "doc"
        },
        "value" : "Determined by the Calculation Agent."
      } ],
      "value" : "CalculationAgent"
    }, {
      "taggedValues" : [ {
        "tag" : {
          "profile" : "meta::pure::profiles::doc",
          "value" : "doc"
        },
        "value" : "Official Closing Price."
      } ],
      "value" : "ClosingPrice"
    }, {
      "taggedValues" : [ {
        "tag" : {
          "profile" : "meta::pure::profiles::doc",
          "value" : "doc"
        },
        "value" : "Determined by the Currency of Equity Dividends."
      } ],
      "value" : "DividendCurrency"
    }, {
      "taggedValues" : [ {
        "tag" : {
          "profile" : "meta::pure::profiles::doc",
          "value" : "doc"
        },
        "value" : "The initial Index Level is the level of the Expiring Contract as provided in the Master Confirmation."
      } ],
      "value" : "ExpiringContractLevel"
    }, {
      "taggedValues" : [ {
        "tag" : {
          "profile" : "meta::pure::profiles::doc",
          "value" : "doc"
        },
        "value" : "Determined by the Hedging Party."
      } ],
      "value" : "HedgeExecution"
    }, {
      "taggedValues" : [ {
        "tag" : {
          "profile" : "meta::pure::profiles::doc",
          "value" : "doc"
        },
        "value" : "Issuer Payment Currency."
      } ],
      "value" : "IssuerPaymentCurrency"
    }, {
      "taggedValues" : [ {
        "tag" : {
          "profile" : "meta::pure::profiles::doc",
          "value" : "doc"
        },
        "value" : "Net Asset Value."
      } ],
      "value" : "NAV"
    }, {
      "taggedValues" : [ {
        "tag" : {
          "profile" : "meta::pure::profiles::doc",
          "value" : "doc"
        },
        "value" : "Opening Price of the Market."
      } ],
      "value" : "OpenPrice"
    }, {
      "taggedValues" : [ {
        "tag" : {
          "profile" : "meta::pure::profiles::doc",
          "value" : "doc"
        },
        "value" : "Official Settlement Price."
      } ],
      "value" : "OSPPrice"
    }, {
      "taggedValues" : [ {
        "tag" : {
          "profile" : "meta::pure::profiles::doc",
          "value" : "doc"
        },
        "value" : "Settlement Currency."
      } ],
      "value" : "SettlementCurrency"
    }, {
      "taggedValues" : [ {
        "tag" : {
          "profile" : "meta::pure::profiles::doc",
          "value" : "doc"
        },
        "value" : "Date on which the strike is determined in respect of a forward starting swap."
      } ],
      "value" : "StrikeDateDetermination"
    }, {
      "taggedValues" : [ {
        "tag" : {
          "profile" : "meta::pure::profiles::doc",
          "value" : "doc"
        },
        "value" : "Official Trade-Weighted Average Price."
      } ],
      "value" : "TWAPPrice"
    }, {
      "taggedValues" : [ {
        "tag" : {
          "profile" : "meta::pure::profiles::doc",
          "value" : "doc"
        },
        "value" : "Price determined at valuation time."
      } ],
      "value" : "ValuationTime"
    }, {
      "taggedValues" : [ {
        "tag" : {
          "profile" : "meta::pure::profiles::doc",
          "value" : "doc"
        },
        "value" : "Official Volume-Weighted Average Price."
      } ],
      "value" : "VWAPPrice"
    } ]
  }
}