{
  "classifierPath" : "meta::pure::metamodel::type::Class",
  "content" : {
    "_type" : "class",
    "name" : "EventTimestamp",
    "package" : "cdm::model",
    "properties" : [ {
      "multiplicity" : {
        "lowerBound" : 1,
        "upperBound" : 1
      },
      "name" : "dateTime",
      "taggedValues" : [ {
        "tag" : {
          "profile" : "meta::pure::profiles::doc",
          "value" : "doc"
        },
        "value" : "The CDM specifies that the zoned date time is to be expressed in accordance with ISO 8601, either as UTC as an offset to UTC."
      } ],
      "type" : "cdm::model::zonedDateTime"
    }, {
      "multiplicity" : {
        "lowerBound" : 1,
        "upperBound" : 1
      },
      "name" : "qualification",
      "taggedValues" : [ {
        "tag" : {
          "profile" : "meta::pure::profiles::doc",
          "value" : "doc"
        },
        "value" : "The timestamp qualifier is specified through an enumeration because the experience of integrating the DTCC and CME data representations suggests that a wide set of timestamps are currently utilized among service providers, while there is not at present an objective set of criteria that could help suggest a defined set of timestamps as part of the CDM. At some future point, one possible baseline could be developed from the review of the set of timestamps specified across regulatory regimes and regulations (incl. regulations such as high frequency trading). Also, the integration with a further set of implementations and the specification of business workflows such as clearing as part of the CDM development should help confirm the implementation approach in this respect."
      } ],
      "type" : "cdm::model::EventTimestampQualificationEnum"
    } ],
    "taggedValues" : [ {
      "tag" : {
        "profile" : "meta::pure::profiles::doc",
        "value" : "doc"
      },
      "value" : "A class to represent the various set of timestamps that can be associated with lifecycle events, as a collection of [dateTime, qualifier]."
    } ]
  }
}