{
  "classifierPath" : "meta::pure::metamodel::type::Class",
  "content" : {
    "_type" : "class",
    "name" : "EvergreenProvision",
    "package" : "cdm::model",
    "properties" : [ {
      "multiplicity" : {
        "lowerBound" : 0,
        "upperBound" : 1
      },
      "name" : "americanExercise",
      "taggedValues" : [ {
        "tag" : {
          "profile" : "meta::pure::profiles::doc",
          "value" : "doc"
        },
        "value" : "Defines the exercise period for an American style option together with any rules governing the notional amount of the underlying which can be exercised on any given exercise date and any associated exercise fees."
      } ],
      "type" : "cdm::model::AmericanExercise"
    }, {
      "multiplicity" : {
        "lowerBound" : 0,
        "upperBound" : 1
      },
      "name" : "bermudaExercise",
      "taggedValues" : [ {
        "tag" : {
          "profile" : "meta::pure::profiles::doc",
          "value" : "doc"
        },
        "value" : "Defines the Bermuda option exercise dates and the expiration date together with any rules governing the notional amount of the underlying which can be exercised on any given exercise date and any associated exercise fee."
      } ],
      "type" : "cdm::model::BermudaExercise"
    }, {
      "multiplicity" : {
        "lowerBound" : 0,
        "upperBound" : 1
      },
      "name" : "europeanExercise",
      "taggedValues" : [ {
        "tag" : {
          "profile" : "meta::pure::profiles::doc",
          "value" : "doc"
        },
        "value" : "Defines the exercise period for a European style option together with any rules governing the notional amount of the underlying which can be exercised on any given exercise date and any associated exercise fees."
      } ],
      "type" : "cdm::model::EuropeanExercise"
    }, {
      "multiplicity" : {
        "lowerBound" : 1,
        "upperBound" : 1
      },
      "name" : "followUpConfirmation",
      "taggedValues" : [ {
        "tag" : {
          "profile" : "meta::pure::profiles::doc",
          "value" : "doc"
        },
        "value" : "A flag to indicate whether follow-up confirmation of exercise (written or electronic) is required following telephonic notice by the buyer to the seller or seller's agent."
      } ],
      "type" : "Boolean"
    }, {
      "multiplicity" : {
        "lowerBound" : 1,
        "upperBound" : 1
      },
      "name" : "evergreenExtensionPeriod",
      "taggedValues" : [ {
        "tag" : {
          "profile" : "meta::pure::profiles::doc",
          "value" : "doc"
        },
        "value" : "The length of each Evergreen extension period relative to the Effective date of the preceding contract."
      } ],
      "type" : "cdm::model::RelativeDateOffset"
    }, {
      "multiplicity" : {
        "lowerBound" : 1,
        "upperBound" : 1
      },
      "name" : "evergreenRollFrequency",
      "taggedValues" : [ {
        "tag" : {
          "profile" : "meta::pure::profiles::doc",
          "value" : "doc"
        },
        "value" : "The frequency with which the Evergreen contract will be extended if notice is not given."
      } ],
      "type" : "cdm::model::CalculationPeriodFrequency"
    }, {
      "multiplicity" : {
        "lowerBound" : 0,
        "upperBound" : 1
      },
      "name" : "callingParty",
      "taggedValues" : [ {
        "tag" : {
          "profile" : "meta::pure::profiles::doc",
          "value" : "doc"
        },
        "value" : "Identifies a party to that has a right to demand for termination of the Security Finance transaction."
      } ],
      "type" : "cdm::model::CallingPartyEnum"
    } ],
    "superTypes" : [ "cdm::model::BuyerSeller" ],
    "taggedValues" : [ {
      "tag" : {
        "profile" : "meta::pure::profiles::doc",
        "value" : "doc"
      },
      "value" : "Specifies a transaction which automatically extends for a specified timeframe until the exercise of an embedded option."
    } ]
  }
}