{
  "classifierPath" : "meta::pure::metamodel::type::Class",
  "content" : {
    "_type" : "class",
    "name" : "ExercisePeriod",
    "package" : "cdm::model",
    "properties" : [ {
      "multiplicity" : {
        "lowerBound" : 1,
        "upperBound" : 1
      },
      "name" : "earliestExerciseDateTenor",
      "taggedValues" : [ {
        "tag" : {
          "profile" : "meta::pure::profiles::doc",
          "value" : "doc"
        },
        "value" : "The time interval to the first (and possibly only) exercise date in the exercise period."
      } ],
      "type" : "cdm::model::Period"
    }, {
      "multiplicity" : {
        "lowerBound" : 0,
        "upperBound" : 1
      },
      "name" : "exerciseFrequency",
      "taggedValues" : [ {
        "tag" : {
          "profile" : "meta::pure::profiles::doc",
          "value" : "doc"
        },
        "value" : "The frequency of subsequent exercise dates in the exercise period following the earliest exercise date. An interval of 1 day should be used to indicate an American style exercise period."
      } ],
      "type" : "cdm::model::Period"
    } ],
    "stereotypes" : [ {
      "profile" : "cdm::model::metadata",
      "value" : "key"
    } ],
    "taggedValues" : [ {
      "tag" : {
        "profile" : "meta::pure::profiles::doc",
        "value" : "doc"
      },
      "value" : "This defines the time interval to the start of the exercise period, i.e. the earliest exercise date, and the frequency of subsequent exercise dates (if any)."
    } ]
  }
}