{
  "classifierPath" : "meta::pure::metamodel::type::Class",
  "content" : {
    "_type" : "class",
    "constraints" : [ {
      "functionDefinition" : {
        "_type" : "lambda",
        "body" : [ {
          "_type" : "func",
          "function" : "lessThan",
          "parameters" : [ {
            "_type" : "property",
            "parameters" : [ {
              "_type" : "var",
              "name" : "this"
            } ],
            "property" : "adjustedExerciseDate"
          }, {
            "_type" : "property",
            "parameters" : [ {
              "_type" : "var",
              "name" : "this"
            } ],
            "property" : "adjustedExtendedTerminationDate"
          } ]
        } ],
        "parameters" : [ ]
      },
      "name" : "FpML_ird_42"
    } ],
    "name" : "ExtensionEvent",
    "package" : "cdm::model",
    "properties" : [ {
      "multiplicity" : {
        "lowerBound" : 1,
        "upperBound" : 1
      },
      "name" : "adjustedExerciseDate",
      "taggedValues" : [ {
        "tag" : {
          "profile" : "meta::pure::profiles::doc",
          "value" : "doc"
        },
        "value" : "The date on which option exercise takes place. This date should already be adjusted for any applicable business day convention."
      } ],
      "type" : "Date"
    }, {
      "multiplicity" : {
        "lowerBound" : 1,
        "upperBound" : 1
      },
      "name" : "adjustedExtendedTerminationDate",
      "taggedValues" : [ {
        "tag" : {
          "profile" : "meta::pure::profiles::doc",
          "value" : "doc"
        },
        "value" : "The termination date if an extendible provision is exercised. This date should already be adjusted for any applicable business day convention."
      } ],
      "type" : "Date"
    } ],
    "stereotypes" : [ {
      "profile" : "cdm::model::metadata",
      "value" : "key"
    } ],
    "taggedValues" : [ {
      "tag" : {
        "profile" : "meta::pure::profiles::doc",
        "value" : "doc"
      },
      "value" : "A data to:  define the adjusted dates associated with an individual extension event."
    } ]
  }
}