{
  "classifierPath" : "meta::pure::metamodel::type::Class",
  "content" : {
    "_type" : "class",
    "constraints" : [ {
      "functionDefinition" : {
        "_type" : "lambda",
        "body" : [ {
          "_type" : "func",
          "function" : "greaterThanEqual",
          "parameters" : [ {
            "_type" : "property",
            "parameters" : [ {
              "_type" : "var",
              "name" : "this"
            } ],
            "property" : "calculationPeriodNumberOfDays"
          }, {
            "_type" : "integer",
            "multiplicity" : {
              "lowerBound" : 1,
              "upperBound" : 1
            },
            "values" : [ 0 ]
          } ]
        } ],
        "parameters" : [ ]
      },
      "name" : "PositiveCalculationPeriodNumberOfDays"
    } ],
    "name" : "FutureValueAmount",
    "package" : "cdm::model",
    "properties" : [ {
      "multiplicity" : {
        "lowerBound" : 0,
        "upperBound" : 1
      },
      "name" : "quantity",
      "stereotypes" : [ {
        "profile" : "cdm::model::metadata",
        "value" : "address"
      } ],
      "type" : "cdm::model::Quantity"
    }, {
      "multiplicity" : {
        "lowerBound" : 1,
        "upperBound" : 1
      },
      "name" : "currency",
      "stereotypes" : [ {
        "profile" : "cdm::model::metadata",
        "value" : "scheme"
      } ],
      "taggedValues" : [ {
        "tag" : {
          "profile" : "meta::pure::profiles::doc",
          "value" : "doc"
        },
        "value" : "The currency in which the an amount is denominated. The list of valid currencies is not presently positioned as an enumeration as part of the CDM because that scope is limited to the values specified by ISDA and FpML. As a result, implementers have to make reference to the relevant standard, such as the ISO 4217 standard for currency codes."
      } ],
      "type" : "String"
    }, {
      "multiplicity" : {
        "lowerBound" : 1,
        "upperBound" : 1
      },
      "name" : "calculationPeriodNumberOfDays",
      "taggedValues" : [ {
        "tag" : {
          "profile" : "meta::pure::profiles::doc",
          "value" : "doc"
        },
        "value" : "The number of days from the adjusted calculation period start date to the adjusted value date, calculated in accordance with the applicable day count fraction."
      } ],
      "type" : "Integer"
    }, {
      "multiplicity" : {
        "lowerBound" : 1,
        "upperBound" : 1
      },
      "name" : "valueDate",
      "taggedValues" : [ {
        "tag" : {
          "profile" : "meta::pure::profiles::doc",
          "value" : "doc"
        },
        "value" : "Adjusted value date of the future value amount."
      } ],
      "type" : "Date"
    } ],
    "taggedValues" : [ {
      "tag" : {
        "profile" : "meta::pure::profiles::doc",
        "value" : "doc"
      },
      "value" : "A class defining a currency and a future value date."
    } ]
  }
}