{
  "classifierPath" : "meta::pure::metamodel::type::Class",
  "content" : {
    "_type" : "class",
    "name" : "HoldingAndUsingPostedCollateralElection",
    "package" : "cdm::model",
    "properties" : [ {
      "multiplicity" : {
        "lowerBound" : 1,
        "upperBound" : 1
      },
      "name" : "party",
      "taggedValues" : [ {
        "tag" : {
          "profile" : "meta::pure::profiles::doc",
          "value" : "doc"
        },
        "value" : "The elective party."
      } ],
      "type" : "cdm::model::CounterpartyRoleEnum"
    }, {
      "multiplicity" : {
        "lowerBound" : 1,
        "upperBound" : 1
      },
      "name" : "eligibilityToHoldCollateral",
      "taggedValues" : [ {
        "tag" : {
          "profile" : "meta::pure::profiles::doc",
          "value" : "doc"
        },
        "value" : "The specification of the conditions under which a party and its custodian(s) are entitled to hold posted collateral."
      } ],
      "type" : "cdm::model::EligibilityToHoldCollateral"
    }, {
      "multiplicity" : {
        "lowerBound" : 1,
        "upperBound" : 1
      },
      "name" : "useOfPostedCollateral",
      "taggedValues" : [ {
        "tag" : {
          "profile" : "meta::pure::profiles::doc",
          "value" : "doc"
        },
        "value" : "Specifies whether the party to the agreement has the right to rehypothecate the collateral held (True), i.e. whether the condition specified in Paragraph 6, (c) of the ISDA 2016 Credit Support Annex for Variation Margin apply. ISDA 2016 Credit Support Annex for Variation Margin, paragraph 13, (h)(ii): Use of Posted Collateral (VM)."
      } ],
      "type" : "Boolean"
    } ],
    "taggedValues" : [ {
      "tag" : {
        "profile" : "meta::pure::profiles::doc",
        "value" : "doc"
      },
      "value" : "A class to specify the parties' elections related to the holding and using of posted collateral. ISDA 2016 Credit Support Annex for Variation Margin, paragraph 13, (h): Holding and Using Posted Collateral (VM)."
    } ]
  }
}