{
  "classifierPath" : "meta::pure::metamodel::type::Enumeration",
  "content" : {
    "_type" : "Enumeration",
    "name" : "NotionalAdjustmentEnum",
    "package" : "cdm::model",
    "taggedValues" : [ {
      "tag" : {
        "profile" : "meta::pure::profiles::doc",
        "value" : "doc"
      },
      "value" : "The enumerated values to specify the conditions that govern the adjustment to the number of units of the return swap."
    } ],
    "values" : [ {
      "taggedValues" : [ {
        "tag" : {
          "profile" : "meta::pure::profiles::doc",
          "value" : "doc"
        },
        "value" : "The adjustments to the number of units are governed by an execution clause."
      } ],
      "value" : "Execution"
    }, {
      "taggedValues" : [ {
        "tag" : {
          "profile" : "meta::pure::profiles::doc",
          "value" : "doc"
        },
        "value" : "The adjustments to the number of units are governed by a portfolio rebalancing clause."
      } ],
      "value" : "PortfolioRebalancing"
    }, {
      "taggedValues" : [ {
        "tag" : {
          "profile" : "meta::pure::profiles::doc",
          "value" : "doc"
        },
        "value" : "The adjustments to the number of units are not governed by any specific clause."
      } ],
      "value" : "Standard"
    } ]
  }
}