{
  "classifierPath" : "meta::pure::metamodel::type::Class",
  "content" : {
    "_type" : "class",
    "constraints" : [ {
      "functionDefinition" : {
        "_type" : "lambda",
        "body" : [ {
          "_type" : "func",
          "function" : "or",
          "parameters" : [ {
            "_type" : "func",
            "function" : "or",
            "parameters" : [ {
              "_type" : "func",
              "function" : "or",
              "parameters" : [ {
                "_type" : "func",
                "function" : "and",
                "parameters" : [ {
                  "_type" : "func",
                  "function" : "and",
                  "parameters" : [ {
                    "_type" : "func",
                    "function" : "isEmpty",
                    "parameters" : [ {
                      "_type" : "property",
                      "parameters" : [ {
                        "_type" : "var",
                        "name" : "this"
                      } ],
                      "property" : "cashSettlementTerms"
                    } ]
                  }, {
                    "_type" : "func",
                    "function" : "isEmpty",
                    "parameters" : [ {
                      "_type" : "property",
                      "parameters" : [ {
                        "_type" : "var",
                        "name" : "this"
                      } ],
                      "property" : "physicalSettlementTerms"
                    } ]
                  } ]
                }, {
                  "_type" : "func",
                  "function" : "isEmpty",
                  "parameters" : [ {
                    "_type" : "property",
                    "parameters" : [ {
                      "_type" : "var",
                      "name" : "this"
                    } ],
                    "property" : "fxSettlementTerms"
                  } ]
                } ]
              }, {
                "_type" : "func",
                "function" : "and",
                "parameters" : [ {
                  "_type" : "func",
                  "function" : "and",
                  "parameters" : [ {
                    "_type" : "func",
                    "function" : "isNotEmpty",
                    "parameters" : [ {
                      "_type" : "property",
                      "parameters" : [ {
                        "_type" : "var",
                        "name" : "this"
                      } ],
                      "property" : "cashSettlementTerms"
                    } ]
                  }, {
                    "_type" : "func",
                    "function" : "isEmpty",
                    "parameters" : [ {
                      "_type" : "property",
                      "parameters" : [ {
                        "_type" : "var",
                        "name" : "this"
                      } ],
                      "property" : "physicalSettlementTerms"
                    } ]
                  } ]
                }, {
                  "_type" : "func",
                  "function" : "isEmpty",
                  "parameters" : [ {
                    "_type" : "property",
                    "parameters" : [ {
                      "_type" : "var",
                      "name" : "this"
                    } ],
                    "property" : "fxSettlementTerms"
                  } ]
                } ]
              } ]
            }, {
              "_type" : "func",
              "function" : "and",
              "parameters" : [ {
                "_type" : "func",
                "function" : "and",
                "parameters" : [ {
                  "_type" : "func",
                  "function" : "isNotEmpty",
                  "parameters" : [ {
                    "_type" : "property",
                    "parameters" : [ {
                      "_type" : "var",
                      "name" : "this"
                    } ],
                    "property" : "physicalSettlementTerms"
                  } ]
                }, {
                  "_type" : "func",
                  "function" : "isEmpty",
                  "parameters" : [ {
                    "_type" : "property",
                    "parameters" : [ {
                      "_type" : "var",
                      "name" : "this"
                    } ],
                    "property" : "cashSettlementTerms"
                  } ]
                } ]
              }, {
                "_type" : "func",
                "function" : "isEmpty",
                "parameters" : [ {
                  "_type" : "property",
                  "parameters" : [ {
                    "_type" : "var",
                    "name" : "this"
                  } ],
                  "property" : "fxSettlementTerms"
                } ]
              } ]
            } ]
          }, {
            "_type" : "func",
            "function" : "and",
            "parameters" : [ {
              "_type" : "func",
              "function" : "and",
              "parameters" : [ {
                "_type" : "func",
                "function" : "isNotEmpty",
                "parameters" : [ {
                  "_type" : "property",
                  "parameters" : [ {
                    "_type" : "var",
                    "name" : "this"
                  } ],
                  "property" : "fxSettlementTerms"
                } ]
              }, {
                "_type" : "func",
                "function" : "isEmpty",
                "parameters" : [ {
                  "_type" : "property",
                  "parameters" : [ {
                    "_type" : "var",
                    "name" : "this"
                  } ],
                  "property" : "cashSettlementTerms"
                } ]
              } ]
            }, {
              "_type" : "func",
              "function" : "isEmpty",
              "parameters" : [ {
                "_type" : "property",
                "parameters" : [ {
                  "_type" : "var",
                  "name" : "this"
                } ],
                "property" : "physicalSettlementTerms"
              } ]
            } ]
          } ]
        } ],
        "parameters" : [ ]
      },
      "name" : "OptionSettlementChoice"
    }, {
      "functionDefinition" : {
        "_type" : "lambda",
        "body" : [ {
          "_type" : "func",
          "function" : "if",
          "parameters" : [ {
            "_type" : "func",
            "function" : "isNotEmpty",
            "parameters" : [ {
              "_type" : "property",
              "parameters" : [ {
                "_type" : "var",
                "name" : "this"
              } ],
              "property" : "cashSettlementTerms"
            } ]
          }, {
            "_type" : "lambda",
            "body" : [ {
              "_type" : "func",
              "function" : "not",
              "parameters" : [ {
                "_type" : "func",
                "function" : "equal",
                "parameters" : [ {
                  "_type" : "property",
                  "parameters" : [ {
                    "_type" : "var",
                    "name" : "this"
                  } ],
                  "property" : "settlementType"
                }, {
                  "_type" : "property",
                  "parameters" : [ {
                    "_type" : "enum",
                    "fullPath" : "cdm::model::SettlementTypeEnum"
                  } ],
                  "property" : "Physical"
                } ]
              } ]
            } ],
            "parameters" : [ ]
          }, {
            "_type" : "lambda",
            "body" : [ {
              "_type" : "boolean",
              "multiplicity" : {
                "lowerBound" : 1,
                "upperBound" : 1
              },
              "values" : [ true ]
            } ],
            "parameters" : [ ]
          } ]
        } ],
        "parameters" : [ ]
      },
      "name" : "CashSettlementTerms"
    }, {
      "functionDefinition" : {
        "_type" : "lambda",
        "body" : [ {
          "_type" : "func",
          "function" : "if",
          "parameters" : [ {
            "_type" : "func",
            "function" : "isNotEmpty",
            "parameters" : [ {
              "_type" : "property",
              "parameters" : [ {
                "_type" : "var",
                "name" : "this"
              } ],
              "property" : "physicalSettlementTerms"
            } ]
          }, {
            "_type" : "lambda",
            "body" : [ {
              "_type" : "func",
              "function" : "not",
              "parameters" : [ {
                "_type" : "func",
                "function" : "equal",
                "parameters" : [ {
                  "_type" : "property",
                  "parameters" : [ {
                    "_type" : "var",
                    "name" : "this"
                  } ],
                  "property" : "settlementType"
                }, {
                  "_type" : "property",
                  "parameters" : [ {
                    "_type" : "enum",
                    "fullPath" : "cdm::model::SettlementTypeEnum"
                  } ],
                  "property" : "Cash"
                } ]
              } ]
            } ],
            "parameters" : [ ]
          }, {
            "_type" : "lambda",
            "body" : [ {
              "_type" : "boolean",
              "multiplicity" : {
                "lowerBound" : 1,
                "upperBound" : 1
              },
              "values" : [ true ]
            } ],
            "parameters" : [ ]
          } ]
        } ],
        "parameters" : [ ]
      },
      "name" : "PhysicalSettlementTerms"
    } ],
    "name" : "OptionSettlement",
    "package" : "cdm::model",
    "properties" : [ {
      "multiplicity" : {
        "lowerBound" : 0,
        "upperBound" : 1
      },
      "name" : "cashSettlementTerms",
      "taggedValues" : [ {
        "tag" : {
          "profile" : "meta::pure::profiles::doc",
          "value" : "doc"
        },
        "value" : "Specifies the parameters associated with the cash settlement procedure."
      } ],
      "type" : "cdm::model::OptionCashSettlement"
    }, {
      "multiplicity" : {
        "lowerBound" : 0,
        "upperBound" : 1
      },
      "name" : "physicalSettlementTerms",
      "taggedValues" : [ {
        "tag" : {
          "profile" : "meta::pure::profiles::doc",
          "value" : "doc"
        },
        "value" : "Specifies the physical settlement terms which apply to the transaction."
      } ],
      "type" : "cdm::model::OptionPhysicalSettlement"
    }, {
      "multiplicity" : {
        "lowerBound" : 0,
        "upperBound" : 1
      },
      "name" : "fxSettlementTerms",
      "taggedValues" : [ {
        "tag" : {
          "profile" : "meta::pure::profiles::doc",
          "value" : "doc"
        },
        "value" : "Specifies the cash settlement of a non deliverable fx option / forward. It includes the currency to settle into together with the fixings required to calculate the currency amount"
      } ],
      "type" : "cdm::model::FxCashSettlement"
    } ],
    "superTypes" : [ "cdm::model::SettlementTerms" ],
    "taggedValues" : [ {
      "tag" : {
        "profile" : "meta::pure::profiles::doc",
        "value" : "doc"
      },
      "value" : "The option settlement terms, which can either be cash, physical, or fx-based cash-settlement. This class can be used for both the settlement of options or forwards."
    } ]
  }
}