{
  "classifierPath" : "meta::pure::metamodel::type::Class",
  "content" : {
    "_type" : "class",
    "name" : "ParametricDates",
    "package" : "cdm::model",
    "properties" : [ {
      "multiplicity" : {
        "lowerBound" : 1,
        "upperBound" : 1
      },
      "name" : "dayType",
      "taggedValues" : [ {
        "tag" : {
          "profile" : "meta::pure::profiles::doc",
          "value" : "doc"
        },
        "value" : "Denotes the enumerated values to specify the day type classification used in counting the number of days between two dates."
      } ],
      "type" : "cdm::model::DayTypeEnum"
    }, {
      "multiplicity" : {
        "lowerBound" : 0,
        "upperBound" : 1
      },
      "name" : "dayDistribution",
      "taggedValues" : [ {
        "tag" : {
          "profile" : "meta::pure::profiles::doc",
          "value" : "doc"
        },
        "value" : "Denotes the method by which the pricing days are distributed across the pricing period."
      } ],
      "type" : "cdm::model::DayDistributionEnum"
    }, {
      "multiplicity" : {
        "lowerBound" : 0,
        "upperBound" : 7
      },
      "name" : "dayOfWeek",
      "taggedValues" : [ {
        "tag" : {
          "profile" : "meta::pure::profiles::doc",
          "value" : "doc"
        },
        "value" : "Indicates the days of the week on which the price will be determined."
      } ],
      "type" : "cdm::model::DayOfWeekEnum"
    }, {
      "multiplicity" : {
        "lowerBound" : 0,
        "upperBound" : 1
      },
      "name" : "dayFrequency",
      "taggedValues" : [ {
        "tag" : {
          "profile" : "meta::pure::profiles::doc",
          "value" : "doc"
        },
        "value" : "Defines the occurrence of the dayOfWeek within the pricing period on which pricing will take place, e.g. the 3rd Friday within each Calculation Period. If omitted, every dayOfWeek will be a pricing day."
      } ],
      "type" : "Float"
    }, {
      "multiplicity" : {
        "lowerBound" : 0,
        "upperBound" : 1
      },
      "name" : "lag",
      "taggedValues" : [ {
        "tag" : {
          "profile" : "meta::pure::profiles::doc",
          "value" : "doc"
        },
        "value" : "The pricing period per calculation period if the pricing days do not wholly fall within the respective calculation period."
      } ],
      "type" : "cdm::model::Lag"
    }, {
      "multiplicity" : {
        "lowerBound" : 1,
        "upperBound" : 1
      },
      "name" : "businessCalendar",
      "taggedValues" : [ {
        "tag" : {
          "profile" : "meta::pure::profiles::doc",
          "value" : "doc"
        },
        "value" : "The enumerated values to specify the business centers."
      } ],
      "type" : "cdm::model::BusinessCenterEnum"
    } ],
    "taggedValues" : [ {
      "tag" : {
        "profile" : "meta::pure::profiles::doc",
        "value" : "doc"
      },
      "value" : "Defines rules for the dates on which the price will be determined."
    } ]
  }
}