{
  "classifierPath" : "meta::pure::metamodel::type::Class",
  "content" : {
    "_type" : "class",
    "name" : "PartyContractInformation",
    "package" : "cdm::model",
    "properties" : [ {
      "multiplicity" : {
        "lowerBound" : 1,
        "upperBound" : 1
      },
      "name" : "partyReference",
      "stereotypes" : [ {
        "profile" : "cdm::model::metadata",
        "value" : "reference"
      } ],
      "taggedValues" : [ {
        "tag" : {
          "profile" : "meta::pure::profiles::doc",
          "value" : "doc"
        },
        "value" : "The reference to the party that owns this party contract information or, in the case of shared trades information, the reference that originated such information."
      } ],
      "type" : "cdm::model::Party"
    }, {
      "multiplicity" : {
        "lowerBound" : 0
      },
      "name" : "naturalPersonRole",
      "taggedValues" : [ {
        "tag" : {
          "profile" : "meta::pure::profiles::doc",
          "value" : "doc"
        },
        "value" : "The role(s) that natural person(s) may have in relation to the contract."
      } ],
      "type" : "cdm::model::NaturalPersonRole"
    }, {
      "multiplicity" : {
        "lowerBound" : 0,
        "upperBound" : 1
      },
      "name" : "relatedParty",
      "type" : "cdm::model::RelatedParty"
    }, {
      "multiplicity" : {
        "lowerBound" : 0,
        "upperBound" : 1
      },
      "name" : "accountReference",
      "stereotypes" : [ {
        "profile" : "cdm::model::metadata",
        "value" : "reference"
      } ],
      "taggedValues" : [ {
        "tag" : {
          "profile" : "meta::pure::profiles::doc",
          "value" : "doc"
        },
        "value" : "Reference to an account."
      } ],
      "type" : "cdm::model::Account"
    }, {
      "multiplicity" : {
        "lowerBound" : 0,
        "upperBound" : 1
      },
      "name" : "category",
      "stereotypes" : [ {
        "profile" : "cdm::model::metadata",
        "value" : "scheme"
      } ],
      "taggedValues" : [ {
        "tag" : {
          "profile" : "meta::pure::profiles::doc",
          "value" : "doc"
        },
        "value" : "The qualification of the trade by the counterparty, e.g. customer or principal. This information is relevant for a number of marketplace processes, such as regulatory reporting or clearing."
      } ],
      "type" : "cdm::model::CategoryEnum"
    } ],
    "taggedValues" : [ {
      "tag" : {
        "profile" : "meta::pure::profiles::doc",
        "value" : "doc"
      },
      "value" : "A class defining party-specific additional information that may be recorded with respect to a contract."
    } ]
  }
}