{
  "classifierPath" : "meta::pure::metamodel::type::Enumeration",
  "content" : {
    "_type" : "Enumeration",
    "name" : "PayRelativeToEnum",
    "package" : "cdm::model",
    "taggedValues" : [ {
      "tag" : {
        "profile" : "meta::pure::profiles::doc",
        "value" : "doc"
      },
      "value" : "The enumerated values to specify whether payments occur relative to the calculation period start date or end date, each reset date, valuation date or the last pricing date."
    } ],
    "values" : [ {
      "taggedValues" : [ {
        "tag" : {
          "profile" : "meta::pure::profiles::doc",
          "value" : "doc"
        },
        "value" : "Payments will occur relative to the first day of each calculation period."
      } ],
      "value" : "CalculationPeriodStartDate"
    }, {
      "taggedValues" : [ {
        "tag" : {
          "profile" : "meta::pure::profiles::doc",
          "value" : "doc"
        },
        "value" : "Payments will occur relative to the last day of each calculation period."
      } ],
      "value" : "CalculationPeriodEndDate"
    }, {
      "taggedValues" : [ {
        "tag" : {
          "profile" : "meta::pure::profiles::doc",
          "value" : "doc"
        },
        "value" : "Payments will occur relative to the last Pricing Date of each Calculation Period."
      } ],
      "value" : "LastPricingDate"
    }, {
      "taggedValues" : [ {
        "tag" : {
          "profile" : "meta::pure::profiles::doc",
          "value" : "doc"
        },
        "value" : "Payments will occur relative to the reset date."
      } ],
      "value" : "ResetDate"
    }, {
      "taggedValues" : [ {
        "tag" : {
          "profile" : "meta::pure::profiles::doc",
          "value" : "doc"
        },
        "value" : "Payments will occur relative to the valuation date."
      } ],
      "value" : "ValuationDate"
    } ]
  }
}