{
  "classifierPath" : "meta::pure::metamodel::type::Class",
  "content" : {
    "_type" : "class",
    "name" : "Portfolio",
    "package" : "cdm::model",
    "properties" : [ {
      "multiplicity" : {
        "lowerBound" : 1,
        "upperBound" : 1
      },
      "name" : "aggregationParameters",
      "taggedValues" : [ {
        "tag" : {
          "profile" : "meta::pure::profiles::doc",
          "value" : "doc"
        },
        "value" : "Describes the portfolio by describing how to aggregate all its relevant Events."
      } ],
      "type" : "cdm::model::AggregationParameters"
    }, {
      "multiplicity" : {
        "lowerBound" : 1,
        "upperBound" : 1
      },
      "name" : "portfolioState",
      "taggedValues" : [ {
        "tag" : {
          "profile" : "meta::pure::profiles::doc",
          "value" : "doc"
        },
        "value" : "Describes the state of the Portfolio as a list of Positions resulting from the aggregation."
      } ],
      "type" : "cdm::model::PortfolioState"
    } ],
    "taggedValues" : [ {
      "tag" : {
        "profile" : "meta::pure::profiles::doc",
        "value" : "doc"
      },
      "value" : "A Portfolio represents an aggregation of multiple Positions, by describing the parameters that this Portfolio should be aggregated based on. The resulting PortfolioState is calculated using these aggregation parameters as inputs, by aggregating all the Events that are relevant to this Portfolio. The concept of Portfolio works at all levels in the model: from the highest for a given LegalEntity for instance, to the lowest to account for security substitutions in a secutity financing transaction. As such, Portfolio can be used either above or below the Contract level."
    } ]
  }
}