{
  "classifierPath" : "meta::pure::metamodel::type::Class",
  "content" : {
    "_type" : "class",
    "name" : "PostedCreditSupportItem",
    "package" : "cdm::model",
    "properties" : [ {
      "multiplicity" : {
        "lowerBound" : 1,
        "upperBound" : 1
      },
      "name" : "cashOrSecurityValue",
      "taggedValues" : [ {
        "tag" : {
          "profile" : "meta::pure::profiles::doc",
          "value" : "doc"
        },
        "value" : "The Base Currency Equivalent of Cash or Security."
      } ],
      "type" : "cdm::model::Money"
    }, {
      "multiplicity" : {
        "lowerBound" : 1,
        "upperBound" : 1
      },
      "name" : "valuationPercentage",
      "taggedValues" : [ {
        "tag" : {
          "profile" : "meta::pure::profiles::doc",
          "value" : "doc"
        },
        "value" : "Valuation Percentage means, for any item of Eligible Collateral (IM), the percentage specified in accordance with Paragraph 13."
      } ],
      "type" : "Float"
    }, {
      "multiplicity" : {
        "lowerBound" : 1,
        "upperBound" : 1
      },
      "name" : "fxHaircutPercentage",
      "taggedValues" : [ {
        "tag" : {
          "profile" : "meta::pure::profiles::doc",
          "value" : "doc"
        },
        "value" : "FX Haircut Percentage means, for any item of Eligible Collateral (IM), the percentage specified in accordance with Paragraph 13."
      } ],
      "type" : "Float"
    }, {
      "multiplicity" : {
        "lowerBound" : 1,
        "upperBound" : 1
      },
      "name" : "disputedCashOrSecurityValue",
      "taggedValues" : [ {
        "tag" : {
          "profile" : "meta::pure::profiles::doc",
          "value" : "doc"
        },
        "value" : "Paragraph 5. If a party (a 'Disputing Party') disputes the Value of any Posted Credit Support (IM)."
      } ],
      "type" : "cdm::model::Money"
    } ],
    "taggedValues" : [ {
      "tag" : {
        "profile" : "meta::pure::profiles::doc",
        "value" : "doc"
      },
      "value" : "Posted Credit Support item with corresponding Valuation Percentage, FX Haircut Percentage and any related disputed Posted Credit Support valuation."
    } ]
  }
}