{
  "classifierPath" : "meta::pure::metamodel::type::Class",
  "content" : {
    "_type" : "class",
    "name" : "ProcessAgent",
    "package" : "cdm::model",
    "properties" : [ {
      "multiplicity" : {
        "lowerBound" : 2,
        "upperBound" : 2
      },
      "name" : "partyElection",
      "taggedValues" : [ {
        "tag" : {
          "profile" : "meta::pure::profiles::doc",
          "value" : "doc"
        },
        "value" : "The parties' Process Agent election."
      } ],
      "type" : "cdm::model::ProcessAgentElection"
    } ],
    "taggedValues" : [ {
      "tag" : {
        "profile" : "meta::pure::profiles::doc",
        "value" : "doc"
      },
      "value" : "A class to specify the Process Agent that might be appointed by the parties as part of a Credit Support Annex/Deed or Collateral Transfer Agreement."
    } ]
  }
}