{
  "classifierPath" : "meta::pure::metamodel::type::Class",
  "content" : {
    "_type" : "class",
    "name" : "RecalculationOfValue",
    "package" : "cdm::model",
    "properties" : [ {
      "multiplicity" : {
        "lowerBound" : 2,
        "upperBound" : 2
      },
      "name" : "partyElection",
      "taggedValues" : [ {
        "tag" : {
          "profile" : "meta::pure::profiles::doc",
          "value" : "doc"
        },
        "value" : "The parties' Recalculation of Value terms."
      } ],
      "type" : "cdm::model::RecalculationOfValueElection"
    } ],
    "taggedValues" : [ {
      "tag" : {
        "profile" : "meta::pure::profiles::doc",
        "value" : "doc"
      },
      "value" : "A class to specify terms for Recalculation of the Market Value of Posted Collateral when a dispute has been failed to be resolved by Resolution Time."
    } ]
  }
}