{
  "classifierPath" : "meta::pure::metamodel::type::Class",
  "content" : {
    "_type" : "class",
    "name" : "SensitivityMethodologies",
    "package" : "cdm::model",
    "properties" : [ {
      "multiplicity" : {
        "lowerBound" : 1,
        "upperBound" : 1
      },
      "name" : "sensitivityToEquity",
      "taggedValues" : [ {
        "tag" : {
          "profile" : "meta::pure::profiles::doc",
          "value" : "doc"
        },
        "value" : "The methodology to compute sensitivities to equity indices, funds and ETFs for the purpose of Initial Margin agreements."
      } ],
      "type" : "cdm::model::SensitivityMethodology"
    }, {
      "multiplicity" : {
        "lowerBound" : 1,
        "upperBound" : 1
      },
      "name" : "sensitivityToCommodity",
      "taggedValues" : [ {
        "tag" : {
          "profile" : "meta::pure::profiles::doc",
          "value" : "doc"
        },
        "value" : "The methodology to compute sensitivities to commodity indices for the purpose of Initial Margin agreements."
      } ],
      "type" : "cdm::model::SensitivityMethodology"
    } ],
    "taggedValues" : [ {
      "tag" : {
        "profile" : "meta::pure::profiles::doc",
        "value" : "doc"
      },
      "value" : "A class to specificy methodologies to compute sensitivities specific to the agreement."
    } ]
  }
}