{
  "classifierPath" : "meta::pure::metamodel::type::Class",
  "content" : {
    "_type" : "class",
    "name" : "SettlementProvision",
    "package" : "cdm::model",
    "properties" : [ {
      "multiplicity" : {
        "lowerBound" : 1,
        "upperBound" : 1
      },
      "name" : "settlementCurrency",
      "stereotypes" : [ {
        "profile" : "cdm::model::metadata",
        "value" : "scheme"
      } ],
      "taggedValues" : [ {
        "tag" : {
          "profile" : "meta::pure::profiles::doc",
          "value" : "doc"
        },
        "value" : "The currency that the payout are settled in when the currency in which the payout is specified is non-deliverable. The list of valid currencies is not presently positioned as an enumeration as part of the CDM because that scope is limited to the values specified by ISDA and FpML. As a result, implementers have to make reference to the relevant standard, such as the ISO 4217 standard for currency codes."
      } ],
      "type" : "String"
    }, {
      "multiplicity" : {
        "lowerBound" : 0,
        "upperBound" : 1
      },
      "name" : "nonDeliverableSettlement",
      "taggedValues" : [ {
        "tag" : {
          "profile" : "meta::pure::profiles::doc",
          "value" : "doc"
        },
        "value" : "The specification of the non-deliverable settlement provision."
      } ],
      "type" : "cdm::model::NonDeliverableSettlement"
    } ],
    "taggedValues" : [ {
      "tag" : {
        "profile" : "meta::pure::profiles::doc",
        "value" : "doc"
      },
      "value" : "A data defining:  the specification of settlement terms, occurring when the settlement currency is different to the notional currency of the trade."
    } ]
  }
}