{
  "classifierPath" : "meta::pure::metamodel::type::Class",
  "content" : {
    "_type" : "class",
    "name" : "SimmException",
    "package" : "cdm::model",
    "properties" : [ {
      "multiplicity" : {
        "lowerBound" : 0,
        "upperBound" : 1
      },
      "name" : "standardisedException",
      "taggedValues" : [ {
        "tag" : {
          "profile" : "meta::pure::profiles::doc",
          "value" : "doc"
        },
        "value" : "The Standard Initial Margin Model exception when specified by the party according to one of the enumerated values."
      } ],
      "type" : "cdm::model::ExceptionEnum"
    }, {
      "multiplicity" : {
        "lowerBound" : 0,
        "upperBound" : 1
      },
      "name" : "simmExceptionApplicable",
      "taggedValues" : [ {
        "tag" : {
          "profile" : "meta::pure::profiles::doc",
          "value" : "doc"
        },
        "value" : "The Standard Initial Margin model exception approach applicable when specified by the party according to one of the enumerated values."
      } ],
      "type" : "cdm::model::SimmExceptionApplicableEnum"
    }, {
      "multiplicity" : {
        "lowerBound" : 0,
        "upperBound" : 1
      },
      "name" : "asSpecified",
      "taggedValues" : [ {
        "tag" : {
          "profile" : "meta::pure::profiles::doc",
          "value" : "doc"
        },
        "value" : "The Standard Initial Margin Model exception when specified as a customized approach by the party."
      } ],
      "type" : "String"
    } ],
    "taggedValues" : [ {
      "tag" : {
        "profile" : "meta::pure::profiles::doc",
        "value" : "doc"
      },
      "value" : "A class to specify the SIMM exception to the regulatory regime clause of the ISDA 2016 and 2018 CSA for Initial Margin as either a normalized value specified as part of an enumeration or a customized value specified of type string. ISDA 2016 Credit Support Annex for Initial Margin paragraph 13, Regime: SIMM Exception."
    } ]
  }
}