{
  "classifierPath" : "meta::pure::metamodel::type::Class",
  "content" : {
    "_type" : "class",
    "name" : "StockSplitInstruction",
    "package" : "cdm::model",
    "properties" : [ {
      "multiplicity" : {
        "lowerBound" : 1,
        "upperBound" : 1
      },
      "name" : "tradeState",
      "taggedValues" : [ {
        "tag" : {
          "profile" : "meta::pure::profiles::doc",
          "value" : "doc"
        },
        "value" : "Contract to be split."
      } ],
      "type" : "cdm::model::TradeState"
    }, {
      "multiplicity" : {
        "lowerBound" : 1,
        "upperBound" : 1
      },
      "name" : "adjustmentRatio",
      "taggedValues" : [ {
        "tag" : {
          "profile" : "meta::pure::profiles::doc",
          "value" : "doc"
        },
        "value" : "The number that denotes the cumulative quantity of post-split shares issued to shareholders versus the quantity of pre-split shares previously issued to shareholders.  This number will be multiplied by existing shares in an equity derivative contract or other positions to determine the post-split number of shares.  With regard to any reference to price, the pre-split reference price will be divided by this number to determine the post-split reference price."
      } ],
      "type" : "Float"
    }, {
      "multiplicity" : {
        "lowerBound" : 1,
        "upperBound" : 1
      },
      "name" : "date",
      "taggedValues" : [ {
        "tag" : {
          "profile" : "meta::pure::profiles::doc",
          "value" : "doc"
        },
        "value" : "The effective date of the stock split, also known as the ex-date. This is the date on which the additional shares are paid to the shareholders, or in the case of a reverse stock split, the number shares held by each shareholder is proportionally reduced.  Equity derivative transactions can be amended in firms' internal systems on such date.   In most markets, the listed stock price is reduced (or increased for a reverse stock split) to account for the split on the same date, but in some markets the price adjustment occurs on a later date.  In either case, equity derivative transactions should be amended on the date that the stocks are paid to the shareholders (or consolidated)."
      } ],
      "type" : "Date"
    } ],
    "taggedValues" : [ {
      "tag" : {
        "profile" : "meta::pure::profiles::doc",
        "value" : "doc"
      },
      "value" : "Data required to perform a stock split business event."
    } ]
  }
}