{
  "classifierPath" : "meta::pure::metamodel::type::Class",
  "content" : {
    "_type" : "class",
    "name" : "Threshold",
    "package" : "cdm::model",
    "properties" : [ {
      "multiplicity" : {
        "lowerBound" : 2,
        "upperBound" : 2
      },
      "name" : "partyElection",
      "taggedValues" : [ {
        "tag" : {
          "profile" : "meta::pure::profiles::doc",
          "value" : "doc"
        },
        "value" : "The parties' Threshold election."
      } ],
      "type" : "cdm::model::ElectiveAmountElection"
    } ],
    "taggedValues" : [ {
      "tag" : {
        "profile" : "meta::pure::profiles::doc",
        "value" : "doc"
      },
      "value" : "A class to specify the unsecured credit exposure that each party to the agreement is prepared to accept before asking for collateral. This threshold is specified either as an amount or as a custom election. ISDA 2016 English Law Credit Support Deed for Initial Margin, paragraph 13, General Principles, (c)(vi)(A): Threshold. | ISDA 2016 Japanese Law Credit Support Annex for Initial Margin, paragraph 13, General Principles, (d)(vi)(A): Threshold. | ISDA 2016 New York Law Credit Support Annex for Initial Margin, paragraph 13, General Principles, (c)(vi)(A): Threshold."
    } ]
  }
}