{
  "classifierPath" : "meta::pure::metamodel::type::Class",
  "content" : {
    "_type" : "class",
    "name" : "TimeZone",
    "package" : "cdm::model",
    "properties" : [ {
      "multiplicity" : {
        "lowerBound" : 1,
        "upperBound" : 1
      },
      "name" : "time",
      "taggedValues" : [ {
        "tag" : {
          "profile" : "meta::pure::profiles::doc",
          "value" : "doc"
        },
        "value" : "The observation time."
      } ],
      "type" : "DateTime"
    }, {
      "multiplicity" : {
        "lowerBound" : 0,
        "upperBound" : 1
      },
      "name" : "location",
      "stereotypes" : [ {
        "profile" : "cdm::model::metadata",
        "value" : "scheme"
      } ],
      "taggedValues" : [ {
        "tag" : {
          "profile" : "meta::pure::profiles::doc",
          "value" : "doc"
        },
        "value" : "FpML specifies the timezoneLocationScheme by reference to the Time Zone Database (a.k.a. tz database) maintained by IANA, the Internet Assigned Numbers Authority."
      } ],
      "type" : "String"
    } ],
    "taggedValues" : [ {
      "tag" : {
        "profile" : "meta::pure::profiles::doc",
        "value" : "doc"
      },
      "value" : "The time alongside with the timezone location information. This class makes use of the FpML TimezoneLocation construct."
    } ]
  }
}