{
  "classifierPath" : "meta::pure::metamodel::type::Enumeration",
  "content" : {
    "_type" : "Enumeration",
    "name" : "TransferSettlementEnum",
    "package" : "cdm::model",
    "taggedValues" : [ {
      "tag" : {
        "profile" : "meta::pure::profiles::doc",
        "value" : "doc"
      },
      "value" : "The enumeration values to specify how the transfer will settle, e.g. DvP."
    } ],
    "values" : [ {
      "taggedValues" : [ {
        "tag" : {
          "profile" : "meta::pure::profiles::doc",
          "value" : "doc"
        },
        "value" : "Simultaneous transfer of two assets, typically securities, as a way to avoid settlement risk."
      } ],
      "value" : "DeliveryVersusDelivery"
    }, {
      "taggedValues" : [ {
        "tag" : {
          "profile" : "meta::pure::profiles::doc",
          "value" : "doc"
        },
        "value" : "Settlement in which the transfer of the asset and the cash settlement are simultaneous."
      } ],
      "value" : "DeliveryVersusPayment"
    }, {
      "taggedValues" : [ {
        "tag" : {
          "profile" : "meta::pure::profiles::doc",
          "value" : "doc"
        },
        "value" : "Simultaneous transfer of cashflows."
      } ],
      "value" : "PaymentVersusPayment"
    }, {
      "taggedValues" : [ {
        "tag" : {
          "profile" : "meta::pure::profiles::doc",
          "value" : "doc"
        },
        "value" : "No central settlement."
      } ],
      "value" : "NotCentralSettlement"
    } ]
  }
}