{
  "classifierPath" : "meta::pure::metamodel::type::Class",
  "content" : {
    "_type" : "class",
    "name" : "Underlier",
    "package" : "cdm::model",
    "properties" : [ {
      "multiplicity" : {
        "lowerBound" : 1,
        "upperBound" : 1
      },
      "name" : "underlyingProduct",
      "taggedValues" : [ {
        "tag" : {
          "profile" : "meta::pure::profiles::doc",
          "value" : "doc"
        },
        "value" : "Specifies the underlying product. As a difference with FpML, and for the purpose of also supporting swaption and options on CDS through a generic construct, its scope also includes the contract and contractualProduct."
      } ],
      "type" : "cdm::model::Product"
    } ],
    "taggedValues" : [ {
      "tag" : {
        "profile" : "meta::pure::profiles::doc",
        "value" : "doc"
      },
      "value" : "A class describing the whole set of possible underliers: single underliers or multiple underliers, each of these having either security or index components."
    } ]
  }
}