{
  "classifierPath" : "meta::pure::metamodel::type::Enumeration",
  "content" : {
    "_type" : "Enumeration",
    "name" : "DealtCurrencyEnum",
    "package" : "cdm::synonymSources::fpml",
    "values" : [ {
      "value" : "ExchangedCurrency1"
    }, {
      "value" : "ExchangedCurrency2"
    } ]
  }
}