{
  "classifierPath" : "meta::pure::metamodel::type::Class",
  "content" : {
    "_type" : "class",
    "name" : "DeterminationMethodReference",
    "package" : "cdm::synonymSources::fpml",
    "properties" : [ {
      "multiplicity" : {
        "lowerBound" : 1,
        "upperBound" : 1
      },
      "name" : "href",
      "type" : "String"
    } ],
    "superTypes" : [ "cdm::synonymSources::fpml::Reference" ]
  }
}