{
  "classifierPath" : "meta::pure::metamodel::type::Class",
  "content" : {
    "_type" : "class",
    "name" : "Formula",
    "package" : "cdm::synonymSources::fpml",
    "properties" : [ {
      "multiplicity" : {
        "lowerBound" : 0,
        "upperBound" : 1
      },
      "name" : "formulaDescription",
      "taggedValues" : [ {
        "tag" : {
          "profile" : "meta::pure::profiles::doc",
          "value" : "doc"
        },
        "value" : "Text description of the formula"
      } ],
      "type" : "String"
    }, {
      "multiplicity" : {
        "lowerBound" : 0,
        "upperBound" : 1
      },
      "name" : "math",
      "taggedValues" : [ {
        "tag" : {
          "profile" : "meta::pure::profiles::doc",
          "value" : "doc"
        },
        "value" : "An element for containing an XML representation of the formula. Defined using xsd:any currently for flexibility in choice of language (MathML, OpenMath)"
      } ],
      "type" : "cdm::synonymSources::fpml::Math"
    }, {
      "multiplicity" : {
        "lowerBound" : 0
      },
      "name" : "formulaComponent",
      "taggedValues" : [ {
        "tag" : {
          "profile" : "meta::pure::profiles::doc",
          "value" : "doc"
        },
        "value" : "Elements describing the components of the formula. The name attribute points to a value used in the math element. The href attribute points to a value elsewhere in the document"
      } ],
      "type" : "cdm::synonymSources::fpml::FormulaComponent"
    } ]
  }
}