{
  "classifierPath" : "meta::pure::metamodel::type::Enumeration",
  "content" : {
    "_type" : "Enumeration",
    "name" : "FxBarrierTypeEnum",
    "package" : "cdm::synonymSources::fpml",
    "values" : [ {
      "taggedValues" : [ {
        "tag" : {
          "profile" : "meta::pure::profiles::doc",
          "value" : "doc"
        },
        "value" : "The option exists if the spot rate is at or above, or at or below the barrier level according to the specified barrier direction."
      } ],
      "value" : "Knockin"
    }, {
      "taggedValues" : [ {
        "tag" : {
          "profile" : "meta::pure::profiles::doc",
          "value" : "doc"
        },
        "value" : "The option ceases to exist if the spot rate is at or above, or at or below the barrier level according to the specified barrier direction."
      } ],
      "value" : "Knockout"
    }, {
      "taggedValues" : [ {
        "tag" : {
          "profile" : "meta::pure::profiles::doc",
          "value" : "doc"
        },
        "value" : "DEPRECATE: Option exists once the barrier is hit. The trigger rate is in-the money in relation to the strike rate."
      } ],
      "value" : "ReverseKnockin"
    }, {
      "taggedValues" : [ {
        "tag" : {
          "profile" : "meta::pure::profiles::doc",
          "value" : "doc"
        },
        "value" : "DEPRECATE: Option ceases to exist once the barrier is hit. The trigger rate is in-the money in relation to the strike rate."
      } ],
      "value" : "ReverseKnockout"
    } ]
  }
}