{
  "classifierPath" : "meta::pure::metamodel::type::Class",
  "content" : {
    "_type" : "class",
    "name" : "FxCashSettlementSimple",
    "package" : "cdm::synonymSources::fpml",
    "properties" : [ {
      "multiplicity" : {
        "lowerBound" : 1,
        "upperBound" : 1
      },
      "name" : "settlementCurrency",
      "taggedValues" : [ {
        "tag" : {
          "profile" : "meta::pure::profiles::doc",
          "value" : "doc"
        },
        "value" : "The currency in which cash settlement occurs."
      } ],
      "type" : "cdm::synonymSources::fpml::Currency"
    }, {
      "multiplicity" : {
        "lowerBound" : 0,
        "upperBound" : 1
      },
      "name" : "referenceCurrency",
      "taggedValues" : [ {
        "tag" : {
          "profile" : "meta::pure::profiles::doc",
          "value" : "doc"
        },
        "value" : "Reference Currency."
      } ],
      "type" : "cdm::synonymSources::fpml::Currency"
    } ]
  }
}