{
  "classifierPath" : "meta::pure::metamodel::type::Enumeration",
  "content" : {
    "_type" : "Enumeration",
    "name" : "FxSettlementAdjustmentMethodEnum",
    "package" : "cdm::synonymSources::fpml",
    "values" : [ {
      "value" : "VariedStrike"
    }, {
      "value" : "VariedNotional"
    } ]
  }
}