{
  "classifierPath" : "meta::pure::metamodel::type::Class",
  "content" : {
    "_type" : "class",
    "name" : "IntermediaryInformation",
    "package" : "cdm::synonymSources::fpml",
    "properties" : [ {
      "multiplicity" : {
        "lowerBound" : 1,
        "upperBound" : 1
      },
      "name" : "intermediarySequenceNumber",
      "taggedValues" : [ {
        "tag" : {
          "profile" : "meta::pure::profiles::doc",
          "value" : "doc"
        },
        "value" : "A sequence number that gives the position of the current intermediary in the chain of payment intermediaries. The assumed domain value set is an ascending sequence of integers starting from 1."
      } ],
      "type" : "Integer"
    }, {
      "multiplicity" : {
        "lowerBound" : 0,
        "upperBound" : 1
      },
      "name" : "intermediaryPartyReference",
      "taggedValues" : [ {
        "tag" : {
          "profile" : "meta::pure::profiles::doc",
          "value" : "doc"
        },
        "value" : "Reference to the party acting as intermediary."
      } ],
      "type" : "cdm::synonymSources::fpml::PartyReference"
    } ]
  }
}