{
  "classifierPath" : "meta::pure::metamodel::type::Enumeration",
  "content" : {
    "_type" : "Enumeration",
    "name" : "MarketDisruptionEventsEnum",
    "package" : "cdm::synonymSources::fpml",
    "values" : [ {
      "taggedValues" : [ {
        "tag" : {
          "profile" : "meta::pure::profiles::doc",
          "value" : "doc"
        },
        "value" : "Market Disruption Events are applicable."
      } ],
      "value" : "Applicable"
    }, {
      "taggedValues" : [ {
        "tag" : {
          "profile" : "meta::pure::profiles::doc",
          "value" : "doc"
        },
        "value" : "Market Disruption Events are not applicable."
      } ],
      "value" : "NotApplicable"
    }, {
      "taggedValues" : [ {
        "tag" : {
          "profile" : "meta::pure::profiles::doc",
          "value" : "doc"
        },
        "value" : "The Market Disruption Event(s) are determined by reference to the relevant Master Agreement."
      } ],
      "value" : "AsSpecifiedInMasterAgreement"
    }, {
      "taggedValues" : [ {
        "tag" : {
          "profile" : "meta::pure::profiles::doc",
          "value" : "doc"
        },
        "value" : "The Market Disruption Event(s) are determined by reference to the relevant Confirmation."
      } ],
      "value" : "AsSpecifiedInConfirmation"
    } ]
  }
}