{
  "classifierPath" : "meta::pure::metamodel::type::Class",
  "content" : {
    "_type" : "class",
    "name" : "NonNegativePayment",
    "package" : "cdm::synonymSources::fpml",
    "properties" : [ {
      "multiplicity" : {
        "lowerBound" : 1,
        "upperBound" : 1
      },
      "name" : "paymentAmount",
      "taggedValues" : [ {
        "tag" : {
          "profile" : "meta::pure::profiles::doc",
          "value" : "doc"
        },
        "value" : "Non negative payment amount."
      } ],
      "type" : "cdm::synonymSources::fpml::NonNegativeMoney"
    } ],
    "superTypes" : [ "cdm::synonymSources::fpml::PaymentBaseExtended" ]
  }
}