{
  "classifierPath" : "meta::pure::metamodel::type::Class",
  "content" : {
    "_type" : "class",
    "name" : "NotionalAmount",
    "package" : "cdm::synonymSources::fpml",
    "superTypes" : [ "cdm::synonymSources::fpml::NonNegativeMoney" ]
  }
}