{
  "classifierPath" : "meta::pure::metamodel::type::Enumeration",
  "content" : {
    "_type" : "Enumeration",
    "name" : "RealisedVarianceMethodEnum",
    "package" : "cdm::synonymSources::fpml",
    "values" : [ {
      "taggedValues" : [ {
        "tag" : {
          "profile" : "meta::pure::profiles::doc",
          "value" : "doc"
        },
        "value" : "For a return on day T, the observed price on T-1 must be in range."
      } ],
      "value" : "Previous"
    }, {
      "taggedValues" : [ {
        "tag" : {
          "profile" : "meta::pure::profiles::doc",
          "value" : "doc"
        },
        "value" : "For a return on day T, the observed price on T must be in range."
      } ],
      "value" : "Last"
    }, {
      "taggedValues" : [ {
        "tag" : {
          "profile" : "meta::pure::profiles::doc",
          "value" : "doc"
        },
        "value" : "For a return on day T, the observed prices on both T and T-1 must be in range"
      } ],
      "value" : "Both"
    } ]
  }
}