{
  "classifierPath" : "meta::pure::metamodel::type::Class",
  "content" : {
    "_type" : "class",
    "name" : "SpreadSchedule",
    "package" : "cdm::synonymSources::fpml",
    "properties" : [ {
      "multiplicity" : {
        "lowerBound" : 0,
        "upperBound" : 1
      },
      "name" : "type",
      "type" : "cdm::synonymSources::fpml::SpreadScheduleType"
    } ],
    "superTypes" : [ "cdm::synonymSources::fpml::Schedule" ]
  }
}